{
  "project_info": {
    "project_number": "985440976583",
    "firebase_url": "https://vans-a64f8.firebaseio.com",
    "project_id": "vans-a64f8",
    "storage_bucket": "vans-a64f8.appspot.com"
  },
  "client": [
    {
      "client_info": {
        "mobilesdk_app_id": "1:985440976583:android:ab163ab96644b5dc0f08e2",
        "android_client_info": {
          "package_name": "app.android.vansallende"
        }
      },
      "oauth_client": [
        {
          "client_id": "985440976583-35g0gps4pvrgu7qfk6c7r77medrflvbk.apps.googleusercontent.com",
          "client_type": 3
        }
      ],
      "api_key": [
        {
          "current_key": "AIzaSyBQWy2VUFjMNioeW3ynt5gn1bWo7lUE5Nc"
        }
      ],
      "services": {
        "appinvite_service": {
          "other_platform_oauth_client": [
            {
              "client_id": "985440976583-35g0gps4pvrgu7qfk6c7r77medrflvbk.apps.googleusercontent.com",
              "client_type": 3
            }
          ]
        }
      }
    }
  ],
  "configuration_version": "1"
}